# compile vhdl design source files
vhdl xil_defaultlib  \
"../../../../../Maquina_expendedora.srcs/sim_1/new/maquina_ref_tb.vhd" \
"../../../../../Maquina_expendedora.srcs/sim_1/new/dinero_tb.vhd" \
"../../../../../Maquina_expendedora.srcs/sim_1/new/BCD_decoder_tb.vhd" \
"../../../../../Maquina_expendedora.srcs/sim_1/new/display_exit_tb.vhd" \
"../../../../../Maquina_expendedora.srcs/sim_1/new/BCD_to_7seg_tb.vhd" \
"../../../../../Maquina_expendedora.srcs/sim_1/new/TOP_tb.vhd" \

# Do not sort compile order
nosort
