Copyright 1986-2020 Xilinx, Inc. All Rights Reserved.
------------------------------------------------------------------------------------
| Tool Version : Vivado v.2020.1 (win64) Build 2902540 Wed May 27 19:54:49 MDT 2020
| Date         : Wed Jan 20 12:59:48 2021
| Host         : LAPTOP-7JGFUE6N running 64-bit major release  (build 9200)
| Command      : report_control_sets -verbose -file top_control_sets_placed.rpt
| Design       : top
| Device       : xc7a100t
------------------------------------------------------------------------------------

Control Set Information

Table of Contents
-----------------
1. Summary
2. Histogram
3. Flip-Flop Distribution
4. Detailed Control Set Information

1. Summary
----------

+----------------------------------------------------------+-------+
|                          Status                          | Count |
+----------------------------------------------------------+-------+
| Total control sets                                       |    12 |
|    Minimum number of control sets                        |    12 |
|    Addition due to synthesis replication                 |     0 |
|    Addition due to physical synthesis replication        |     0 |
| Unused register locations in slices containing registers |    41 |
+----------------------------------------------------------+-------+
* Control sets can be merged at opt_design using control_set_merge or merge_equivalent_drivers
** Run report_qor_suggestions for automated merging and remapping suggestions


2. Histogram
------------

+--------------------+-------+
|       Fanout       | Count |
+--------------------+-------+
| Total control sets |    12 |
| >= 0 to < 4        |     6 |
| >= 4 to < 6        |     0 |
| >= 6 to < 8        |     0 |
| >= 8 to < 10       |     3 |
| >= 10 to < 12      |     0 |
| >= 12 to < 14      |     0 |
| >= 14 to < 16      |     1 |
| >= 16              |     2 |
+--------------------+-------+
* Control sets can be remapped at either synth_design or opt_design


3. Flip-Flop Distribution
-------------------------

+--------------+-----------------------+------------------------+-----------------+--------------+
| Clock Enable | Synchronous Set/Reset | Asynchronous Set/Reset | Total Registers | Total Slices |
+--------------+-----------------------+------------------------+-----------------+--------------+
| No           | No                    | No                     |              36 |           13 |
| No           | No                    | Yes                    |              12 |            3 |
| No           | Yes                   | No                     |              15 |            4 |
| Yes          | No                    | No                     |               0 |            0 |
| Yes          | No                    | Yes                    |              32 |            8 |
| Yes          | Yes                   | No                     |               8 |            2 |
+--------------+-----------------------+------------------------+-----------------+--------------+


4. Detailed Control Set Information
-----------------------------------

+-----------------------------------------+----------------------------------------+-------------------------------------+------------------+----------------+--------------+
|               Clock Signal              |              Enable Signal             |           Set/Reset Signal          | Slice Load Count | Bel Load Count | Bels / Slice |
+-----------------------------------------+----------------------------------------+-------------------------------------+------------------+----------------+--------------+
|  inst_fsm/bebida_lista_reg_i_2_n_0      |                                        |                                     |                1 |              1 |         1.00 |
|  CLK_IBUF_BUFG                          |                                        |                                     |                1 |              2 |         2.00 |
|  CLK_P_BUFG                             |                                        | RESET_IBUF                          |                1 |              3 |         3.00 |
|  inst_fsm/bebida__0                     |                                        |                                     |                1 |              3 |         3.00 |
|  inst_fsm/bebida_elegida_reg[2]_i_2_n_0 |                                        |                                     |                1 |              3 |         3.00 |
|  inst_fdivider_200Hz/CLK                |                                        |                                     |                1 |              3 |         3.00 |
|  CLK_P_BUFG                             | synchronizers[3].inst_debouncer_i/E[0] | inst_coin_counter/cuenta[7]_i_1_n_0 |                2 |              8 |         4.00 |
|  inst_fsm/salida_reg[7]_i_2_n_0         |                                        |                                     |                2 |              8 |         4.00 |
|  CLK_IBUF_BUFG                          |                                        | RESET_IBUF                          |                2 |              9 |         4.50 |
|  CLK_IBUF_BUFG                          |                                        | inst_prescaler/clk_out_i            |                4 |             15 |         3.75 |
|  CLK_P_BUFG                             |                                        |                                     |                6 |             20 |         3.33 |
|  CLK_P_BUFG                             | inst_timer/ticks[0]_i_1_n_0            | RESET_IBUF                          |                8 |             32 |         4.00 |
+-----------------------------------------+----------------------------------------+-------------------------------------+------------------+----------------+--------------+


